# block apple update servers
# 1
0.0.0.0 ocsp.apple.com
0.0.0.0 world-gen.g.aaplimg.com
0.0.0.0 mesu.apple.com
0.0.0.0 gdmf.apple.com
# 2
0.0.0.0 swscan.apple.com
0.0.0.0 swquery.apple.com
0.0.0.0 swdownload.apple.com
0.0.0.0 swcdn.apple.com
0.0.0.0 swdist.apple.com
0.0.0.0 appldnld.apple.com
# 3
0.0.0.0 apple-dns.net
0.0.0.0 akadns.net
# 4
0.0.0.0 ocsp.int-x3.letsencrypt.org
0.0.0.0 xp.apple.com
# ?
0.0.0.0 gateway.fe.apple-dns.net
